<?xml version="1.0" encoding="utf-8"?>
<COLLADA xmlns="http://www.collada.org/2005/11/COLLADASchema" version="1.4.1" xmlns:xsi="http://www.w3.org/2001/XMLSchema-instance">
  <asset>
    <contributor>
      <author>Blender User</author>
      <authoring_tool>Blender 2.80.75 commit date:2019-07-29, commit time:14:47, hash:f6cb5f54494e</authoring_tool>
    </contributor>
    <created>2019-10-10T22:20:04</created>
    <modified>2019-10-10T22:20:04</modified>
    <unit name="meter" meter="1"/>
    <up_axis>Z_UP</up_axis>
  </asset>
  <library_cameras>
    <camera id="Camera-camera" name="Camera">
      <optics>
        <technique_common>
          <perspective>
            <xfov sid="xfov">39.59775</xfov>
            <aspect_ratio>1.777778</aspect_ratio>
            <znear sid="znear">0.1</znear>
            <zfar sid="zfar">100</zfar>
          </perspective>
        </technique_common>
      </optics>
      <extra>
        <technique profile="blender">
          <shiftx sid="shiftx" type="float">0</shiftx>
          <shifty sid="shifty" type="float">0</shifty>
          <dof_distance sid="dof_distance" type="float">10</dof_distance>
        </technique>
      </extra>
    </camera>
  </library_cameras>
  <library_lights>
    <light id="Light-light" name="Light">
      <technique_common>
        <point>
          <color sid="color">1000 1000 1000</color>
          <constant_attenuation>1</constant_attenuation>
          <linear_attenuation>0</linear_attenuation>
          <quadratic_attenuation>0.00111109</quadratic_attenuation>
        </point>
      </technique_common>
      <extra>
        <technique profile="blender">
          <type sid="type" type="int">0</type>
          <flag sid="flag" type="int">0</flag>
          <mode sid="mode" type="int">1</mode>
          <gamma sid="blender_gamma" type="float">1</gamma>
          <red sid="red" type="float">1</red>
          <green sid="green" type="float">1</green>
          <blue sid="blue" type="float">1</blue>
          <shadow_r sid="blender_shadow_r" type="float">0</shadow_r>
          <shadow_g sid="blender_shadow_g" type="float">0</shadow_g>
          <shadow_b sid="blender_shadow_b" type="float">0</shadow_b>
          <energy sid="blender_energy" type="float">1000</energy>
          <dist sid="blender_dist" type="float">29.99998</dist>
          <spotsize sid="spotsize" type="float">75</spotsize>
          <spotblend sid="spotblend" type="float">0.15</spotblend>
          <att1 sid="att1" type="float">0</att1>
          <att2 sid="att2" type="float">1</att2>
          <falloff_type sid="falloff_type" type="int">2</falloff_type>
          <clipsta sid="clipsta" type="float">0.04999995</clipsta>
          <clipend sid="clipend" type="float">30.002</clipend>
          <bias sid="bias" type="float">1</bias>
          <soft sid="soft" type="float">3</soft>
          <bufsize sid="bufsize" type="int">2880</bufsize>
          <samp sid="samp" type="int">3</samp>
          <buffers sid="buffers" type="int">1</buffers>
          <area_shape sid="area_shape" type="int">1</area_shape>
          <area_size sid="area_size" type="float">0.1</area_size>
          <area_sizey sid="area_sizey" type="float">0.1</area_sizey>
          <area_sizez sid="area_sizez" type="float">1</area_sizez>
        </technique>
      </extra>
    </light>
  </library_lights>
  <library_effects>
    <effect id="Material-effect">
      <profile_COMMON>
        <technique sid="common">
          <lambert>
            <emission>
              <color sid="emission">0 0 0 1</color>
            </emission>
            <diffuse>
              <color sid="diffuse">0.09101094 0.8000001 0.04435815 1</color>
            </diffuse>
            <index_of_refraction>
              <float sid="ior">1.45</float>
            </index_of_refraction>
          </lambert>
        </technique>
      </profile_COMMON>
    </effect>
    <effect id="Material_001-effect">
      <profile_COMMON>
        <technique sid="common">
          <lambert>
            <emission>
              <color sid="emission">0 0 0 1</color>
            </emission>
            <diffuse>
              <color sid="diffuse">0.004296975 0.003582067 0.8000001 1</color>
            </diffuse>
            <index_of_refraction>
              <float sid="ior">1.45</float>
            </index_of_refraction>
          </lambert>
        </technique>
      </profile_COMMON>
    </effect>
  </library_effects>
  <library_images/>
  <library_materials>
    <material id="Material-material" name="Material">
      <instance_effect url="#Material-effect"/>
    </material>
    <material id="Material_001-material" name="Material.001">
      <instance_effect url="#Material_001-effect"/>
    </material>
  </library_materials>
  <library_geometries>
    <geometry id="Cube-mesh" name="Cube">
      <mesh>
        <source id="Cube-mesh-positions">
          <float_array id="Cube-mesh-positions-array" count="312">0.5 0.5 0.5 0.5 0.5 -0.5 0.5 -0.5 0.5 0.5 -0.5 -0.5 -0.5 0.5 0.5 -0.5 0.5 -0.5 -0.5 -0.5 0.5 -0.5 -0.5 -0.5 0.3425008 0.4892311 0.9986612 0.3425008 0.4892311 4.494724 0.4153355 0.4892311 0.9986612 0.4153355 0.4892311 4.494724 0.3425008 0.2808977 0.9986612 0.3425008 0.2808977 4.494724 0.4153354 0.2808977 0.9986612 0.4153354 0.2808977 4.494724 -0.451227 0.06853348 0.9986612 -0.451227 0.06853348 4.494724 -0.3783923 0.06853348 0.9986612 -0.3783923 0.06853348 4.494724 -0.451227 -0.1397998 0.9986612 -0.451227 -0.1397998 4.494724 -0.3783924 -0.1397998 0.9986612 -0.3783924 -0.1397998 4.494724 0.3445596 0.03191596 0.9986612 0.3445596 0.03191596 4.494724 0.4173907 0.03155642 0.9986612 0.4173907 0.03155642 4.494724 0.3404456 -0.1764072 0.9986612 0.3404456 -0.1764072 4.494724 0.4132767 -0.1767667 0.9986612 0.4132767 -0.1767667 4.494724 0.4153355 0.06958168 0.9986612 0.4153355 0.06958168 4.494724 0.3425008 0.06958168 0.9986612 0.3425008 0.06958168 4.494724 0.4153354 0.277915 0.9986612 0.4153354 0.277915 4.494724 0.3425008 0.277915 0.9986612 0.3425008 0.277915 4.494724 -0.07288712 0.4521075 0.9986612 -0.07288712 0.4521075 4.494724 -0.07288712 0.4885248 0.9986612 -0.07288712 0.4885248 4.494724 0.3437796 0.4521075 0.9986612 0.3437796 0.4521075 4.494724 0.3437796 0.4885248 0.9986612 0.3437796 0.4885248 4.494724 0.004143834 0.03070896 0.9986612 0.004143834 0.03070896 4.494724 0.004143834 0.06712627 0.9986612 0.004143834 0.06712627 4.494724 0.4208106 0.03070896 0.9986612 0.4208106 0.03070896 4.494724 0.4208106 0.06712627 0.9986612 0.4208106 0.06712627 4.494724 -0.451227 0.4892311 0.9986612 -0.451227 0.4892311 4.494724 -0.3783923 0.4892311 0.9986612 -0.3783923 0.4892311 4.494724 -0.451227 0.2808977 0.9986612 -0.451227 0.2808977 4.494724 -0.3783924 0.2808977 0.9986612 -0.3783924 0.2808977 4.494724 -0.3774489 0.06958168 0.9986612 -0.3774489 0.06958168 4.494724 -0.4502836 0.06958168 0.9986612 -0.4502836 0.06958168 4.494724 -0.377449 0.277915 0.9986612 -0.377449 0.277915 4.494724 -0.4502836 0.277915 0.9986612 -0.4502836 0.277915 4.494724 -0.3764035 0.4521075 0.9986612 -0.3764035 0.4521075 4.494724 -0.3764035 0.4885248 0.9986612 -0.3764035 0.4885248 4.494724 -0.07546889 0.4521075 0.9986612 -0.07546889 0.4521075 4.494724 -0.07546889 0.4885248 0.9986612 -0.07546889 0.4885248 4.494724 -0.03828334 -0.1383132 0.9986612 -0.03828334 -0.1383132 4.494724 -0.0382834 -0.1747305 0.9986612 -0.0382834 -0.1747305 4.494724 -0.4549501 -0.1383131 0.9986612 -0.4549501 -0.1383131 4.494724 -0.4549501 -0.1747304 0.9986612 -0.4549501 -0.1747304 4.494724 0.3445596 -0.1764393 0.9986612 0.3445596 -0.1764393 4.494724 0.4173907 -0.1767988 0.9986612 0.4173907 -0.1767988 4.494724 0.3404456 -0.3847625 0.9986612 0.3404456 -0.3847625 4.494724 0.4132767 -0.3851221 0.9986612 0.4132767 -0.3851221 4.494724 -0.3774489 -0.3837509 0.9986612 -0.3774489 -0.3837509 4.494724 -0.4502836 -0.3837509 0.9986612 -0.4502836 -0.3837509 4.494724 -0.377449 -0.1754175 0.9986612 -0.377449 -0.1754175 4.494724 -0.4502836 -0.1754175 0.9986612 -0.4502836 -0.1754175 4.494724</float_array>
          <technique_common>
            <accessor source="#Cube-mesh-positions-array" count="104" stride="3">
              <param name="X" type="float"/>
              <param name="Y" type="float"/>
              <param name="Z" type="float"/>
            </accessor>
          </technique_common>
        </source>
        <source id="Cube-mesh-normals">
          <float_array id="Cube-mesh-normals-array" count="117">0 0 1 0 -1 0 -1 0 0 0 0 -1 1 0 0 0 1 0 1 -3.27342e-7 0 -1 3.27342e-7 0 0.004936873 0.9999879 0 0.9998052 -0.01974433 0 -0.004936873 -0.9999879 0 -0.9998052 0.01974403 0 1.3618e-6 0 -1 -7.85621e-6 0 1 -1 -3.27342e-7 0 1 3.27342e-7 0 1 -3.27342e-7 0 -1 3.27342e-7 0 1 -9.36317e-7 0 -1.78814e-7 -1 0 1.78814e-7 1 0 -9.30218e-7 0 1 0.9998052 -0.01974433 0 -0.004937291 -0.9999879 0 -0.9998052 0.01974403 0 1.3618e-6 0 -1 0.004936873 0.9999879 0 0.9998052 -0.01974403 0 -0.004936873 -0.9999879 0 -0.9998052 0.01974433 0 -1.96405e-6 0 -1 4.52653e-6 0 1 1 -7.02238e-7 0 -1.78814e-7 -1 0 0 0 -1 0.9998052 -0.01974403 0 -0.004937291 -0.9999879 0 -1.96405e-6 0 -1 -3.32969e-6 0 1</float_array>
          <technique_common>
            <accessor source="#Cube-mesh-normals-array" count="39" stride="3">
              <param name="X" type="float"/>
              <param name="Y" type="float"/>
              <param name="Z" type="float"/>
            </accessor>
          </technique_common>
        </source>
        <source id="Cube-mesh-map-0">
          <float_array id="Cube-mesh-map-0-array" count="936">0.625 0 0.375 0.25 0.375 0 0.625 0.25 0.375 0.5 0.375 0.25 0.625 0.5 0.375 0.75 0.375 0.5 0.625 0.75 0.375 1 0.375 0.75 0.375 0.5 0.125 0.75 0.125 0.5 0.875 0.5 0.625 0.75 0.625 0.5 0.625 0 0.375 0.25 0.375 0 0.625 0.25 0.375 0.5 0.375 0.25 0.625 0.5 0.375 0.75 0.375 0.5 0.625 0.75 0.375 1 0.375 0.75 0.375 0.5 0.125 0.75 0.125 0.5 0.625 0.5 0.875 0.75 0.625 0.75 0.625 0 0.375 0.25 0.375 0 0.625 0.25 0.375 0.5 0.375 0.25 0.625 0.5 0.375 0.75 0.375 0.5 0.625 0.75 0.375 1 0.375 0.75 0.375 0.5 0.125 0.75 0.125 0.5 0.625 0.5 0.875 0.75 0.625 0.75 0.625 0 0.375 0.25 0.375 0 0.625 0.25 0.375 0.5 0.375 0.25 0.625 0.5 0.375 0.75 0.375 0.5 0.625 0.75 0.375 1 0.375 0.75 0.375 0.5 0.125 0.75 0.125 0.5 0.625 0.5 0.875 0.75 0.625 0.75 0.625 0 0.375 0.25 0.375 0 0.625 0.25 0.375 0.5 0.375 0.25 0.625 0.5 0.375 0.75 0.375 0.5 0.625 0.75 0.375 1 0.375 0.75 0.125 0.5 0.375 0.75 0.125 0.75 0.875 0.5 0.625 0.75 0.625 0.5 0.625 0 0.375 0.25 0.375 0 0.625 0.25 0.375 0.5 0.375 0.25 0.625 0.5 0.375 0.75 0.375 0.5 0.625 0.75 0.375 1 0.375 0.75 0.375 0.5 0.125 0.75 0.125 0.5 0.875 0.5 0.625 0.75 0.625 0.5 0.625 0 0.375 0.25 0.375 0 0.625 0.25 0.375 0.5 0.375 0.25 0.625 0.5 0.375 0.75 0.375 0.5 0.625 0.75 0.375 1 0.375 0.75 0.375 0.5 0.125 0.75 0.125 0.5 0.875 0.5 0.625 0.75 0.625 0.5 0.625 0 0.375 0.25 0.375 0 0.625 0.25 0.375 0.5 0.375 0.25 0.625 0.5 0.375 0.75 0.375 0.5 0.625 0.75 0.375 1 0.375 0.75 0.375 0.5 0.125 0.75 0.125 0.5 0.625 0.5 0.875 0.75 0.625 0.75 0.625 0 0.375 0.25 0.375 0 0.625 0.25 0.375 0.5 0.375 0.25 0.625 0.5 0.375 0.75 0.375 0.5 0.625 0.75 0.375 1 0.375 0.75 0.125 0.5 0.375 0.75 0.125 0.75 0.875 0.5 0.625 0.75 0.625 0.5 0.625 0 0.375 0.25 0.375 0 0.625 0.25 0.375 0.5 0.375 0.25 0.625 0.5 0.375 0.75 0.375 0.5 0.625 0.75 0.375 1 0.375 0.75 0.375 0.5 0.125 0.75 0.125 0.5 0.875 0.5 0.625 0.75 0.625 0.5 0.625 0 0.375 0.25 0.375 0 0.625 0.25 0.375 0.5 0.375 0.25 0.625 0.5 0.375 0.75 0.375 0.5 0.625 0.75 0.375 1 0.375 0.75 0.375 0.5 0.125 0.75 0.125 0.5 0.625 0.5 0.875 0.75 0.625 0.75 0.625 0 0.375 0.25 0.375 0 0.625 0.25 0.375 0.5 0.375 0.25 0.625 0.5 0.375 0.75 0.375 0.5 0.625 0.75 0.375 1 0.375 0.75 0.375 0.5 0.125 0.75 0.125 0.5 0.625 0.5 0.875 0.75 0.625 0.75 0.625 0 0.375 0.25 0.375 0 0.625 0.25 0.375 0.5 0.375 0.25 0.625 0.5 0.375 0.75 0.375 0.5 0.625 0.75 0.375 1 0.375 0.75 0.125 0.5 0.375 0.75 0.125 0.75 0.875 0.5 0.625 0.75 0.625 0.5 0.625 0 0.625 0.25 0.375 0.25 0.625 0.25 0.625 0.5 0.375 0.5 0.625 0.5 0.625 0.75 0.375 0.75 0.625 0.75 0.625 1 0.375 1 0.375 0.5 0.375 0.75 0.125 0.75 0.875 0.5 0.875 0.75 0.625 0.75 0.625 0 0.625 0.25 0.375 0.25 0.625 0.25 0.625 0.5 0.375 0.5 0.625 0.5 0.625 0.75 0.375 0.75 0.625 0.75 0.625 1 0.375 1 0.375 0.5 0.375 0.75 0.125 0.75 0.625 0.5 0.875 0.5 0.875 0.75 0.625 0 0.625 0.25 0.375 0.25 0.625 0.25 0.625 0.5 0.375 0.5 0.625 0.5 0.625 0.75 0.375 0.75 0.625 0.75 0.625 1 0.375 1 0.375 0.5 0.375 0.75 0.125 0.75 0.625 0.5 0.875 0.5 0.875 0.75 0.625 0 0.625 0.25 0.375 0.25 0.625 0.25 0.625 0.5 0.375 0.5 0.625 0.5 0.625 0.75 0.375 0.75 0.625 0.75 0.625 1 0.375 1 0.375 0.5 0.375 0.75 0.125 0.75 0.625 0.5 0.875 0.5 0.875 0.75 0.625 0 0.625 0.25 0.375 0.25 0.625 0.25 0.625 0.5 0.375 0.5 0.625 0.5 0.625 0.75 0.375 0.75 0.625 0.75 0.625 1 0.375 1 0.125 0.5 0.375 0.5 0.375 0.75 0.875 0.5 0.875 0.75 0.625 0.75 0.625 0 0.625 0.25 0.375 0.25 0.625 0.25 0.625 0.5 0.375 0.5 0.625 0.5 0.625 0.75 0.375 0.75 0.625 0.75 0.625 1 0.375 1 0.375 0.5 0.375 0.75 0.125 0.75 0.875 0.5 0.875 0.75 0.625 0.75 0.625 0 0.625 0.25 0.375 0.25 0.625 0.25 0.625 0.5 0.375 0.5 0.625 0.5 0.625 0.75 0.375 0.75 0.625 0.75 0.625 1 0.375 1 0.375 0.5 0.375 0.75 0.125 0.75 0.875 0.5 0.875 0.75 0.625 0.75 0.625 0 0.625 0.25 0.375 0.25 0.625 0.25 0.625 0.5 0.375 0.5 0.625 0.5 0.625 0.75 0.375 0.75 0.625 0.75 0.625 1 0.375 1 0.375 0.5 0.375 0.75 0.125 0.75 0.625 0.5 0.875 0.5 0.875 0.75 0.625 0 0.625 0.25 0.375 0.25 0.625 0.25 0.625 0.5 0.375 0.5 0.625 0.5 0.625 0.75 0.375 0.75 0.625 0.75 0.625 1 0.375 1 0.125 0.5 0.375 0.5 0.375 0.75 0.875 0.5 0.875 0.75 0.625 0.75 0.625 0 0.625 0.25 0.375 0.25 0.625 0.25 0.625 0.5 0.375 0.5 0.625 0.5 0.625 0.75 0.375 0.75 0.625 0.75 0.625 1 0.375 1 0.375 0.5 0.375 0.75 0.125 0.75 0.875 0.5 0.875 0.75 0.625 0.75 0.625 0 0.625 0.25 0.375 0.25 0.625 0.25 0.625 0.5 0.375 0.5 0.625 0.5 0.625 0.75 0.375 0.75 0.625 0.75 0.625 1 0.375 1 0.375 0.5 0.375 0.75 0.125 0.75 0.625 0.5 0.875 0.5 0.875 0.75 0.625 0 0.625 0.25 0.375 0.25 0.625 0.25 0.625 0.5 0.375 0.5 0.625 0.5 0.625 0.75 0.375 0.75 0.625 0.75 0.625 1 0.375 1 0.375 0.5 0.375 0.75 0.125 0.75 0.625 0.5 0.875 0.5 0.875 0.75 0.625 0 0.625 0.25 0.375 0.25 0.625 0.25 0.625 0.5 0.375 0.5 0.625 0.5 0.625 0.75 0.375 0.75 0.625 0.75 0.625 1 0.375 1 0.125 0.5 0.375 0.5 0.375 0.75 0.875 0.5 0.875 0.75 0.625 0.75</float_array>
          <technique_common>
            <accessor source="#Cube-mesh-map-0-array" count="468" stride="2">
              <param name="S" type="float"/>
              <param name="T" type="float"/>
            </accessor>
          </technique_common>
        </source>
        <vertices id="Cube-mesh-vertices">
          <input semantic="POSITION" source="#Cube-mesh-positions"/>
        </vertices>
        <triangles material="Material-material" count="12">
          <input semantic="VERTEX" source="#Cube-mesh-vertices" offset="0"/>
          <input semantic="NORMAL" source="#Cube-mesh-normals" offset="1"/>
          <input semantic="TEXCOORD" source="#Cube-mesh-map-0" offset="2" set="0"/>
          <p>4 0 0 2 0 1 0 0 2 2 1 3 7 1 4 3 1 5 6 2 6 5 2 7 7 2 8 1 3 9 7 3 10 5 3 11 0 4 12 3 4 13 1 4 14 4 5 15 1 5 16 5 5 17 4 0 234 6 0 235 2 0 236 2 1 237 6 1 238 7 1 239 6 2 240 4 2 241 5 2 242 1 3 243 3 3 244 7 3 245 0 4 246 2 4 247 3 4 248 4 5 249 0 5 250 1 5 251</p>
        </triangles>
        <triangles material="Material_001-material" count="144">
          <input semantic="VERTEX" source="#Cube-mesh-vertices" offset="0"/>
          <input semantic="NORMAL" source="#Cube-mesh-normals" offset="1"/>
          <input semantic="TEXCOORD" source="#Cube-mesh-map-0" offset="2" set="0"/>
          <p>9 5 18 10 5 19 8 5 20 11 4 21 14 4 22 10 4 23 15 1 24 12 1 25 14 1 26 13 2 27 8 2 28 12 2 29 14 3 30 8 3 31 10 3 32 15 0 33 9 0 34 13 0 35 17 5 36 18 5 37 16 5 38 19 6 39 22 6 40 18 6 41 23 1 42 20 1 43 22 1 44 21 7 45 16 7 46 20 7 47 22 3 48 16 3 49 18 3 50 23 0 51 17 0 52 21 0 53 25 8 54 26 8 55 24 8 56 27 9 57 30 9 58 26 9 59 31 10 60 28 10 61 30 10 62 29 11 63 24 11 64 28 11 65 30 12 66 24 12 67 26 12 68 31 13 69 25 13 70 29 13 71 33 1 72 34 1 73 32 1 74 35 14 75 38 14 76 34 14 77 39 5 78 36 5 79 38 5 80 37 15 81 32 15 82 36 15 83 34 3 84 36 3 85 32 3 86 35 0 87 37 0 88 39 0 89 41 2 90 42 2 91 40 2 92 43 5 93 46 5 94 42 5 95 47 4 96 44 4 97 46 4 98 45 1 99 40 1 100 44 1 101 46 3 102 40 3 103 42 3 104 43 0 105 45 0 106 47 0 107 49 2 108 50 2 109 48 2 110 51 5 111 54 5 112 50 5 113 55 4 114 52 4 115 54 4 116 53 1 117 48 1 118 52 1 119 54 3 120 48 3 121 50 3 122 51 0 123 53 0 124 55 0 125 57 5 126 58 5 127 56 5 128 59 16 129 62 16 130 58 16 131 63 1 132 60 1 133 62 1 134 61 17 135 56 17 136 60 17 137 62 3 138 56 3 139 58 3 140 63 0 141 57 0 142 61 0 143 65 1 144 66 1 145 64 1 146 67 2 147 70 2 148 66 2 149 71 5 150 68 5 151 70 5 152 69 4 153 64 4 154 68 4 155 66 3 156 68 3 157 64 3 158 67 0 159 69 0 160 71 0 161 73 2 162 74 2 163 72 2 164 75 5 165 78 5 166 74 5 167 79 4 168 76 4 169 78 4 170 77 1 171 72 1 172 76 1 173 78 3 174 72 3 175 74 3 176 75 0 177 77 0 178 79 0 179 81 18 180 82 18 181 80 18 182 83 19 183 86 19 184 82 19 185 87 2 186 84 2 187 86 2 188 85 20 189 80 20 190 84 20 191 86 3 192 80 3 193 82 3 194 87 21 195 81 21 196 85 21 197 89 8 198 90 8 199 88 8 200 91 22 201 94 22 202 90 22 203 95 23 204 92 23 205 94 23 206 93 24 207 88 24 208 92 24 209 94 25 210 88 25 211 90 25 212 95 0 213 89 0 214 93 0 215 97 1 216 98 1 217 96 1 218 99 2 219 102 2 220 98 2 221 103 5 222 100 5 223 102 5 224 101 4 225 96 4 226 100 4 227 98 3 228 100 3 229 96 3 230 99 0 231 101 0 232 103 0 233 9 5 252 11 5 253 10 5 254 11 6 255 15 6 256 14 6 257 15 1 258 13 1 259 12 1 260 13 7 261 9 7 262 8 7 263 14 3 264 12 3 265 8 3 266 15 0 267 11 0 268 9 0 269 17 5 270 19 5 271 18 5 272 19 4 273 23 4 274 22 4 275 23 1 276 21 1 277 20 1 278 21 2 279 17 2 280 16 2 281 22 3 282 20 3 283 16 3 284 23 0 285 19 0 286 17 0 287 25 26 288 27 26 289 26 26 290 27 27 291 31 27 292 30 27 293 31 28 294 29 28 295 28 28 296 29 29 297 25 29 298 24 29 299 30 30 300 28 30 301 24 30 302 31 31 303 27 31 304 25 31 305 33 1 306 35 1 307 34 1 308 35 2 309 39 2 310 38 2 311 39 5 312 37 5 313 36 5 314 37 4 315 33 4 316 32 4 317 34 3 318 38 3 319 36 3 320 35 0 321 33 0 322 37 0 323 41 2 324 43 2 325 42 2 326 43 5 327 47 5 328 46 5 329 47 4 330 45 4 331 44 4 332 45 1 333 41 1 334 40 1 335 46 3 336 44 3 337 40 3 338 43 0 339 41 0 340 45 0 341 49 2 342 51 2 343 50 2 344 51 5 345 55 5 346 54 5 347 55 4 348 53 4 349 52 4 350 53 1 351 49 1 352 48 1 353 54 3 354 52 3 355 48 3 356 51 0 357 49 0 358 53 0 359 57 5 360 59 5 361 58 5 362 59 4 363 63 4 364 62 4 365 63 1 366 61 1 367 60 1 368 61 2 369 57 2 370 56 2 371 62 3 372 60 3 373 56 3 374 63 0 375 59 0 376 57 0 377 65 1 378 67 1 379 66 1 380 67 2 381 71 2 382 70 2 383 71 5 384 69 5 385 68 5 386 69 4 387 65 4 388 64 4 389 66 3 390 70 3 391 68 3 392 67 0 393 65 0 394 69 0 395 73 2 396 75 2 397 74 2 398 75 5 399 79 5 400 78 5 401 79 4 402 77 4 403 76 4 404 77 1 405 73 1 406 72 1 407 78 3 408 76 3 409 72 3 410 75 0 411 73 0 412 77 0 413 81 32 414 83 32 415 82 32 416 83 33 417 87 33 418 86 33 419 87 2 420 85 2 421 84 2 422 85 20 423 81 20 424 80 20 425 86 34 426 84 34 427 80 34 428 87 0 429 83 0 430 81 0 431 89 26 432 91 26 433 90 26 434 91 35 435 95 35 436 94 35 437 95 36 438 93 36 439 92 36 440 93 29 441 89 29 442 88 29 443 94 37 444 92 37 445 88 37 446 95 38 447 91 38 448 89 38 449 97 1 450 99 1 451 98 1 452 99 2 453 103 2 454 102 2 455 103 5 456 101 5 457 100 5 458 101 4 459 97 4 460 96 4 461 98 3 462 102 3 463 100 3 464 99 0 465 97 0 466 101 0 467</p>
        </triangles>
      </mesh>
    </geometry>
  </library_geometries>
  <library_visual_scenes>
    <visual_scene id="Scene" name="Scene">
      <node id="Camera" name="Camera" type="NODE">
        <matrix sid="transform">0.6859207 -0.3240135 0.6515582 7.358891 0.7276763 0.3054208 -0.6141704 -6.925791 0 0.8953956 0.4452714 4.958309 0 0 0 1</matrix>
        <instance_camera url="#Camera-camera"/>
      </node>
      <node id="Light" name="Light" type="NODE">
        <matrix sid="transform">-0.2908646 -0.7711008 0.5663932 4.076245 0.9551712 -0.1998834 0.2183912 1.005454 -0.05518906 0.6045247 0.7946723 5.903862 0 0 0 1</matrix>
        <instance_light url="#Light-light"/>
      </node>
      <node id="Cube" name="Cube" type="NODE">
        <matrix sid="transform">1.2192 0 0 -0.146396 0 2.4384 0 -0.903118 0 0 0.0254 0.029782 0 0 0 1</matrix>
        <instance_geometry url="#Cube-mesh" name="Cube">
          <bind_material>
            <technique_common>
              <instance_material symbol="Material-material" target="#Material-material">
                <bind_vertex_input semantic="UVMap" input_semantic="TEXCOORD" input_set="0"/>
              </instance_material>
              <instance_material symbol="Material_001-material" target="#Material_001-material">
                <bind_vertex_input semantic="UVMap" input_semantic="TEXCOORD" input_set="0"/>
              </instance_material>
            </technique_common>
          </bind_material>
        </instance_geometry>
      </node>
    </visual_scene>
  </library_visual_scenes>
  <scene>
    <instance_visual_scene url="#Scene"/>
  </scene>
</COLLADA>